{
  "$schema": "../../node_modules/ng-packagr/ng-package.schema.json",
  "dest": "../../dist/ngx-events",
  "whitelistedNonPeerDependencies": [
    "moment",
    "@universis/theme"
  ],
  "deleteDestPath": false,
  "lib": {
    "entryFile": "src/public_api.ts"
  }
}
